lab-03: Covid-19
…
print(state_per_capita_data)

# A tibble: 3,192 × 7
   state   date       daily_new_cases new_cases_lagged POPESTIMATE2021
   <chr>   <date>               <dbl>            <dbl>           <dbl>
 1 Alabama 2020-03-13               6                1           88789
 2 Alabama 2020-03-14              12               -1           88789
 3 Alabama 2020-03-15              23               -3           88789
 4 Alabama 2020-03-16              29               -8           88789
 5 Alabama 2020-03-17              39              -11           88789
 6 Alabama 2020-03-18              51              -16           88789
 7 Alabama 2020-03-19              78              -12           88789
 8 Alabama 2020-03-20             106              -14           88789
 9 Alabama 2020-03-21             131              -38           88789
10 Alabama 2020-03-22             157              -90           88789
# ℹ 3,182 more rows
# ℹ 2 more variables: new_cases_per_capita <dbl>, rolling_mean_per_capita <dbl>
…
Rows: 3221 Columns: 3
── Column specification ────────────────────────────────────────────────────────
Delimiter: ","
chr (1): fips
dbl (2): LON, LAT

ℹ Use `spec()` to retrieve the full column specification for this data.
ℹ Specify the column types or set `show_col_types = FALSE` to quiet this message.

location_data <- location_data %>% rename(FIP = fips)
question7_joined <- full_join(covid_data , location_data , by = "FIP")
print(question7_joined)

# A tibble: 2,502,843 × 8
   date       county      state      FIP   cases deaths    LON   LAT
   <date>     <chr>       <chr>      <chr> <dbl>  <dbl>  <dbl> <dbl>
 1 2020-01-21 Snohomish   Washington 53061     1      0 -122.   48.0
 2 2020-01-22 Snohomish   Washington 53061     1      0 -122.   48.0
 3 2020-01-23 Snohomish   Washington 53061     1      0 -122.   48.0
 4 2020-01-24 Cook        Illinois   17031     1      0  -87.8  41.8
 5 2020-01-24 Snohomish   Washington 53061     1      0 -122.   48.0
 6 2020-01-25 Orange      California 06059     1      0 -118.   33.7
 7 2020-01-25 Cook        Illinois   17031     1      0  -87.8  41.8
 8 2020-01-25 Snohomish   Washington 53061     1      0 -122.   48.0
 9 2020-01-26 Maricopa    Arizona    04013     1      0 -112.   33.3
10 2020-01-26 Los Angeles California 06037     1      0 -118.   34.3
# ℹ 2,502,833 more rows
…
